JonathanWilson-TidyTuesday1
…
From this quick map of the second data set we see the majority of observations are around NYC.

Lets rank the number of reviews per city.

pizzacity = p1clean %>% 

  group_by(city) %>%

  summarize(num_per_city = n()) %>%

  arrange(desc(num_per_city))

pizzacity

## # A tibble: 99 x 2
##    city        num_per_city
##    <chr>              <int>
##  1 New York             249
##  2 Brooklyn              20
##  3 Boston                13
##  4 Las Vegas             11
##  5 Minneapolis            8
##  6 Atlanta                6
##  7 Chicago                6
##  8 Columbus               6
##  9 Hoboken                6
## 10 Nantucket              6
## # ... with 89 more rows
…
NYC1 = p1clean %>%

  filter(city == "New York")

NYC1

## # A tibble: 249 x 22
##    name  address1 city    zip country latitude longitude price_level
##    <chr> <chr>    <chr> <dbl> <chr>      <dbl>     <dbl>       <dbl>
##  1 99 C~ 473 Lex~ New ~ 10017 US          40.8     -74.0           1
##  2 Nino~ 39 W 46~ New ~ 10036 US          40.8     -74.0           2
##  3 La P~ 31 E 20~ New ~ 10003 US          40.7     -74.0           2
##  4 Chee~ 2640 Br~ New ~ 10025 US          40.8     -74.0           1
##  5 Sal ~ 2671 Br~ New ~ 10025 US          40.8     -74.0           1
##  6 MAMA~ 2750 Br~ New ~ 10025 US          40.8     -74.0           2
##  7 Bond~ 221 W 4~ New ~ 10036 US          40.8     -74.0           2
##  8 Pats~ 2287 1s~ New ~ 10035 US          40.8     -73.9           2
##  9 LA T~ 101 W 6~ New ~ 10023 US          40.8     -74.0           1
## 10 Perc~ 190 Ble~ New ~ 10012 US          40.7     -74.0           1
## # ... with 239 more rows, and 14 more variables: provider_rating <dbl>,
## #   provider_review_count <dbl>, review_stats_all_average_score <dbl>,
## #   review_stats_all_count <dbl>, review_stats_all_total_score <dbl>,
## #   review_stats_community_average_score <dbl>,
## #   review_stats_community_count <dbl>,
## #   review_stats_community_total_score <dbl>,
## #   review_stats_critic_average_score <dbl>,
## #   review_stats_critic_count <dbl>,
## #   review_stats_critic_total_score <dbl>,
…
